{
  "project_info": {
    "project_number": "565862883756",
    "firebase_url": "https://fasteat-98c23.firebaseio.com",
    "project_id": "fasteat-98c23",
    "storage_bucket": "fasteat-98c23.appspot.com"
  },
  "client": [
    {
      "client_info": {
        "mobilesdk_app_id": "1:565862883756:android:f4ac0b9cea760b8d",
        "android_client_info": {
          "package_name": "com.fastEat"
        }
      },
      "oauth_client": [
        {
          "client_id": "565862883756-4ebmc363mr2s4qfcq9i5i553li6ac495.apps.googleusercontent.com",
          "client_type": 1,
          "android_info": {
            "package_name": "com.fastEat",
            "certificate_hash": "2b35786fda79ec3ea01fd5dae1a2cc016c562c3e"
          }
        },
        {
          "client_id": "565862883756-7plrh98t2jirvulhkrqsae1rqbdipiip.apps.googleusercontent.com",
          "client_type": 1,
          "android_info": {
            "package_name": "com.fastEat",
            "certificate_hash": "38676ece379a211ad721a7ac2e907e498924aeb5"
          }
        },
        {
          "client_id": "565862883756-91n1m6ip3ajv7pmo5pbogg8a3iuqv4ht.apps.googleusercontent.com",
          "client_type": 1,
          "android_info": {
            "package_name": "com.fastEat",
            "certificate_hash": "4d8bf06cff67cb538c293fdafa8b33ee125b6d81"
          }
        },
        {
          "client_id": "565862883756-9kh6dutd70s4lu05t5ekb77jj8555va9.apps.googleusercontent.com",
          "client_type": 1,
          "android_info": {
            "package_name": "com.fastEat",
            "certificate_hash": "d7d7fffc71dc820306018139a0afca3db53c68ff"
          }
        },
        {
          "client_id": "565862883756-cuf19u5t4efhdghrjik5m2u5pae72ven.apps.googleusercontent.com",
          "client_type": 1,
          "android_info": {
            "package_name": "com.fastEat",
            "certificate_hash": "3c091a990c8d72b04cb886e70475ac91bc9b0da9"
          }
        },
        {
          "client_id": "565862883756-ob4uukbsn2tl8obpagdprd1oui6l7ns1.apps.googleusercontent.com",
          "client_type": 1,
          "android_info": {
            "package_name": "com.fastEat",
            "certificate_hash": "ef1c9908663881b59f4583c4920918e392d52704"
          }
        },
        {
          "client_id": "565862883756-qedhcmeqgi34bc9doh9hvg62hoj4r12k.apps.googleusercontent.com",
          "client_type": 1,
          "android_info": {
            "package_name": "com.fastEat",
            "certificate_hash": "645e8e711326a8c5bad31adc370308c696204146"
          }
        },
        {
          "client_id": "565862883756-jjc6o43arremv8ke0nuja5p036eu7666.apps.googleusercontent.com",
          "client_type": 3
        }
      ],
      "api_key": [
        {
          "current_key": "AIzaSyCrMQ72VAUFEN4wA1qnAa8U1av4VkJEnrA"
        }
      ],
      "services": {
        "appinvite_service": {
          "other_platform_oauth_client": [
            {
              "client_id": "565862883756-1j9uvoech4ntb2nd0vdnfnr57u4hco2c.apps.googleusercontent.com",
              "client_type": 3
            },
            {
              "client_id": "565862883756-hmnv9v3364qdibkg5qcm1utp36eldu38.apps.googleusercontent.com",
              "client_type": 2,
              "ios_info": {
                "bundle_id": "com.fastEat.deliveryman"
              }
            }
          ]
        }
      }
    },
    {
      "client_info": {
        "mobilesdk_app_id": "1:565862883756:android:bfaddfb1a046aef8",
        "android_client_info": {
          "package_name": "com.fastEat.deliveryman"
        }
      },
      "oauth_client": [
        {
          "client_id": "565862883756-207mn7jcifrck7jbp8u0ogg6lv1ool84.apps.googleusercontent.com",
          "client_type": 1,
          "android_info": {
            "package_name": "com.fastEat.deliveryman",
            "certificate_hash": "645e8e711326a8c5bad31adc370308c696204146"
          }
        },
        {
          "client_id": "565862883756-3t87cndhq6bs68kf4iqu8pjeeviiagrf.apps.googleusercontent.com",
          "client_type": 1,
          "android_info": {
            "package_name": "com.fastEat.deliveryman",
            "certificate_hash": "42bd63a766166e05e352e83abe261beb42a035bd"
          }
        },
        {
          "client_id": "565862883756-c78v96s26u119o4ldaeake8abqbiqvhu.apps.googleusercontent.com",
          "client_type": 1,
          "android_info": {
            "package_name": "com.fastEat.deliveryman",
            "certificate_hash": "38676ece379a211ad721a7ac2e907e498924aeb5"
          }
        },
        {
          "client_id": "565862883756-f6dmftuhnbtmcompiv5lrvuf8cadqi0s.apps.googleusercontent.com",
          "client_type": 1,
          "android_info": {
            "package_name": "com.fastEat.deliveryman",
            "certificate_hash": "baebceab1cd50816aeb988fe43fd1fae5b5b9de9"
          }
        },
        {
          "client_id": "565862883756-qadbq5o8egem8vcvpgtbeqs0qmr8u808.apps.googleusercontent.com",
          "client_type": 1,
          "android_info": {
            "package_name": "com.fastEat.deliveryman",
            "certificate_hash": "ef1c9908663881b59f4583c4920918e392d52704"
          }
        },
        {
          "client_id": "565862883756-s660c223ufrm3rajigii705831qdkgqi.apps.googleusercontent.com",
          "client_type": 1,
          "android_info": {
            "package_name": "com.fastEat.deliveryman",
            "certificate_hash": "d7d7fffc71dc820306018139a0afca3db53c68ff"
          }
        },
        {
          "client_id": "565862883756-tdqfcl3kpoi292l3kfhjmaq5i4tgebc6.apps.googleusercontent.com",
          "client_type": 1,
          "android_info": {
            "package_name": "com.fastEat.deliveryman",
            "certificate_hash": "4d8bf06cff67cb538c293fdafa8b33ee125b6d81"
          }
        },
        {
          "client_id": "565862883756-jjc6o43arremv8ke0nuja5p036eu7666.apps.googleusercontent.com",
          "client_type": 3
        }
      ],
      "api_key": [
        {
          "current_key": "AIzaSyCrMQ72VAUFEN4wA1qnAa8U1av4VkJEnrA"
        }
      ],
      "services": {
        "appinvite_service": {
          "other_platform_oauth_client": [
            {
              "client_id": "565862883756-1j9uvoech4ntb2nd0vdnfnr57u4hco2c.apps.googleusercontent.com",
              "client_type": 3
            },
            {
              "client_id": "565862883756-hmnv9v3364qdibkg5qcm1utp36eldu38.apps.googleusercontent.com",
              "client_type": 2,
              "ios_info": {
                "bundle_id": "com.fastEat.deliveryman"
              }
            }
          ]
        }
      }
    },
    {
      "client_info": {
        "mobilesdk_app_id": "1:565862883756:android:2c42e7392944d112",
        "android_client_info": {
          "package_name": "com.fastEat.store"
        }
      },
      "oauth_client": [
        {
          "client_id": "565862883756-80rfhkirr5d2k46oockn683l955tnekk.apps.googleusercontent.com",
          "client_type": 1,
          "android_info": {
            "package_name": "com.fastEat.store",
            "certificate_hash": "ef1c9908663881b59f4583c4920918e392d52704"
          }
        },
        {
          "client_id": "565862883756-cqq4d86drejdragcp8f8bfoums1gs752.apps.googleusercontent.com",
          "client_type": 1,
          "android_info": {
            "package_name": "com.fastEat.store",
            "certificate_hash": "d7d7fffc71dc820306018139a0afca3db53c68ff"
          }
        },
        {
          "client_id": "565862883756-dpfmmmfuvp04nntqkd6f5s5tp462g84q.apps.googleusercontent.com",
          "client_type": 1,
          "android_info": {
            "package_name": "com.fastEat.store",
            "certificate_hash": "645e8e711326a8c5bad31adc370308c696204146"
          }
        },
        {
          "client_id": "565862883756-k3k47od6tittjc16i3kn69l02g7gdbid.apps.googleusercontent.com",
          "client_type": 1,
          "android_info": {
            "package_name": "com.fastEat.store",
            "certificate_hash": "4d8bf06cff67cb538c293fdafa8b33ee125b6d81"
          }
        },
        {
          "client_id": "565862883756-lnrnlslggkuttpd475o04fqfvvi5ees2.apps.googleusercontent.com",
          "client_type": 1,
          "android_info": {
            "package_name": "com.fastEat.store",
            "certificate_hash": "be7a378f4cb1c1f15f3b4743ceec053c1b637fa2"
          }
        },
        {
          "client_id": "565862883756-q41bl5h76vip9rphuto6j0io4oknrn2d.apps.googleusercontent.com",
          "client_type": 1,
          "android_info": {
            "package_name": "com.fastEat.store",
            "certificate_hash": "c784b047d808c076f93441a9a3b53f1fb3804de5"
          }
        },
        {
          "client_id": "565862883756-v3cdbi3sna7lhr1ehelo059brralade6.apps.googleusercontent.com",
          "client_type": 1,
          "android_info": {
            "package_name": "com.fastEat.store",
            "certificate_hash": "2b35786fda79ec3ea01fd5dae1a2cc016c562c3e"
          }
        },
        {
          "client_id": "565862883756-jjc6o43arremv8ke0nuja5p036eu7666.apps.googleusercontent.com",
          "client_type": 3
        }
      ],
      "api_key": [
        {
          "current_key": "AIzaSyCrMQ72VAUFEN4wA1qnAa8U1av4VkJEnrA"
        }
      ],
      "services": {
        "appinvite_service": {
          "other_platform_oauth_client": [
            {
              "client_id": "565862883756-1j9uvoech4ntb2nd0vdnfnr57u4hco2c.apps.googleusercontent.com",
              "client_type": 3
            },
            {
              "client_id": "565862883756-hmnv9v3364qdibkg5qcm1utp36eldu38.apps.googleusercontent.com",
              "client_type": 2,
              "ios_info": {
                "bundle_id": "com.fastEat.deliveryman"
              }
            }
          ]
        }
      }
    }
  ],
  "configuration_version": "1"
}